<?xml version="1.0" encoding="UTF-8" standalone="no"?>
<!--
{% load registrasion_tags %}
{% load lca2018_tags %}
{% items_purchased as purchased %}
{% items_pending as pending %}
{% items_purchased 1 as ticket %}
{% total_items_purchased 3 as penguin_dinner_count %}
{% total_items_purchased 4 as speakers_dinner_count %}
{% total_items_purchased 5 as pdns_count %}
{% ticket_type as ticket_type %}
-->
<!DOCTYPE svg PUBLIC "-//W3C//DTD SVG 1.1//EN" "http://www.w3.org/Graphics/SVG/1.1/DTD/svg11.dtd">
<svg width="100%" height="100%" viewBox="0 0 1749 2481" version="1.1" xmlns="http://www.w3.org/2000/svg" xmlns:xlink="http://www.w3.org/1999/xlink" xml:space="preserve" xmlns:serif="http://www.serif.com/" style="fill-rule:evenodd;clip-rule:evenodd;stroke-linejoin:round;stroke-miterlimit:1.41421;">
    <g id="Layer2">
        <g>
            <g transform="matrix(0.876047,0,0,0.876157,586.37,983.471)">
                <text x="0px" y="0px" style="font-family:'ArialMT', 'Arial', sans-serif;font-size:88.353px;">{{ ticket_type }}</text>
            </g>
            <g transform="matrix(0.565664,0,0,0.565735,183.139,542.16)">
                <text x="0px" y="0px" style="font-family:'Roboto-Regular', 'Roboto';font-size:144.577px;">{{ user.attendee.attendeeprofilebase.attendeeprofile.name }}</text>
            </g>
            <g transform="matrix(0.565664,0,0,0.565735,183.977,636.051)">
                <text x="0px" y="0px" style="font-family:'Roboto-Regular', 'Roboto';font-size:96.385px;">{{ user.attendee.attendeeprofilebase.attendeeprofile.company }}</text>
            </g>
            <g transform="matrix(0.565664,0,0,0.565735,184.606,709.018)">
                <text x="0px" y="0px" style="font-family:'Roboto-Regular', 'Roboto';font-size:60.24px;">{{ user.attendee.attendeeprofilebase.attendeeprofile.free_text_1 }}</text>
            </g>
            <g transform="matrix(0.565664,0,0,0.565735,184.606,777.272)">
                <text x="0px" y="0px" style="font-family:'Roboto-Regular', 'Roboto';font-size:60.24px;">{{ user.attendee.attendeeprofilebase.attendeeprofile.free_text_2 }}</text>
            </g>
            <g id="text23417" transform="matrix(0.876047,0,0,0.876157,372.016,421.991)">
                <text x="0px" y="0px" style="font-family:'LucidaGrande-Bold', 'Lucida Grande', sans-serif;font-weight:600;font-size:72.288px;">{{ penguin_dinner_count }}</text>
            </g>
            <g id="text23421" transform="matrix(0.876047,0,0,0.876157,548.641,423.991)">
                <text x="0px" y="0px" style="font-family:'LucidaGrande-Bold', 'Lucida Grande', sans-serif;font-weight:600;font-size:72.288px;">{{ speakers_dinner_count }}</text>
            </g>
            <g id="text23425" transform="matrix(0.876047,0,0,0.876157,722.795,423.991)">
                <text x="0px" y="0px" style="font-family:'LucidaGrande-Bold', 'Lucida Grande', sans-serif;font-weight:600;font-size:72.288px;">{{ pdns_count }}</text>
            </g>
            <g id="text4601" transform="matrix(0.876047,0,0,0.876157,183.954,414.754)">
                <text x="0px" y="0px" style="font-family:'LucidaGrande-Bold', 'Lucida Grande', sans-serif;font-weight:600;font-size:40.16px;">{% if user.attendee.attendeeprofilebase.attendeeprofile.of_legal_age    %}18+{% endif %}</text>
            </g>
        </g>
        <g transform="matrix(-1,1.22465e-16,-1.22465e-16,-1,1748.03,2480.22)">
            <g transform="matrix(0.876047,0,0,0.876157,586.37,983.471)">
                <text x="0px" y="0px" style="font-family:'ArialMT', 'Arial', sans-serif;font-size:88.353px;">{{ ticket_type }}</text>
            </g>
            <g transform="matrix(0.565664,0,0,0.565735,183.139,542.16)">
                <text x="0px" y="0px" style="font-family:'Roboto-Regular', 'Roboto';font-size:144.577px;">{{ user.attendee.attendeeprofilebase.attendeeprofile.name }}</text>
            </g>
            <g transform="matrix(0.565664,0,0,0.565735,183.977,636.051)">
                <text x="0px" y="0px" style="font-family:'Roboto-Regular', 'Roboto';font-size:96.385px;">{{ user.attendee.attendeeprofilebase.attendeeprofile.company }}</text>
            </g>
            <g transform="matrix(0.565664,0,0,0.565735,184.606,709.018)">
                <text x="0px" y="0px" style="font-family:'Roboto-Regular', 'Roboto';font-size:60.24px;">{{ user.attendee.attendeeprofilebase.attendeeprofile.free_text_1 }}</text>
            </g>
            <g transform="matrix(0.565664,0,0,0.565735,184.606,777.272)">
                <text x="0px" y="0px" style="font-family:'Roboto-Regular', 'Roboto';font-size:60.24px;">{{ user.attendee.attendeeprofilebase.attendeeprofile.free_text_2 }}</text>
            </g>
            <g id="text234171" serif:id="text23417" transform="matrix(0.876047,0,0,0.876157,372.016,421.991)">
                <text x="0px" y="0px" style="font-family:'LucidaGrande-Bold', 'Lucida Grande', sans-serif;font-weight:600;font-size:72.288px;">{{ penguin_dinner_count }}</text>
            </g>
            <g id="text234211" serif:id="text23421" transform="matrix(0.876047,0,0,0.876157,548.641,423.991)">
                <text x="0px" y="0px" style="font-family:'LucidaGrande-Bold', 'Lucida Grande', sans-serif;font-weight:600;font-size:72.288px;">{{ speakers_dinner_count }}</text>
            </g>
            <g id="text234251" serif:id="text23425" transform="matrix(0.876047,0,0,0.876157,722.795,423.991)">
                <text x="0px" y="0px" style="font-family:'LucidaGrande-Bold', 'Lucida Grande', sans-serif;font-weight:600;font-size:72.288px;">{{ pdns_count }}</text>
            </g>
            <g id="text46011" serif:id="text4601" transform="matrix(0.876047,0,0,0.876157,183.954,414.754)">
                <text x="0px" y="0px" style="font-family:'LucidaGrande-Bold', 'Lucida Grande', sans-serif;font-weight:600;font-size:40.16px;">{% if user.attendee.attendeeprofilebase.attendeeprofile.of_legal_age    %}18+{% endif %}</text>
            </g>
        </g>
    </g>
</svg>
