<?xml version="1.0" encoding="UTF-8" standalone="no"?>
<!DOCTYPE svg PUBLIC "-//W3C//DTD SVG 1.1//EN" "http://www.w3.org/Graphics/SVG/1.1/DTD/svg11.dtd">
<svg width="100%" height="100%" viewBox="0 0 314 129" version="1.1" xmlns="http://www.w3.org/2000/svg" xmlns:xlink="http://www.w3.org/1999/xlink" xml:space="preserve" style="fill-rule:evenodd;clip-rule:evenodd;stroke-linejoin:round;stroke-miterlimit:1.41421;">
    <g transform="matrix(1,0,0,1,-140.826,-647.568)">
        <path d="M358.061,775.769L358.061,769.59L361.186,766.573C364.527,763.304 366.431,761.795 366.431,759.927C366.431,758.633 365.82,758.49 363.629,758.49C361.33,758.49 358.492,759.029 358.492,759.029L358.133,752.886C358.133,752.886 361.869,751.557 365.928,751.557C371.317,751.557 374.658,753.999 374.658,758.741C374.658,762.872 373.472,764.884 369.557,767.614L367.15,769.303L374.514,769.303L374.514,775.769L358.061,775.769Z" style="fill:rgb(78,135,160);fill-rule:nonzero;"/>
        <path d="M384.978,764.029C384.978,768.843 385.229,769.597 386.199,769.597C387.169,769.597 387.421,768.843 387.421,764.029C387.421,759.215 387.205,758.497 386.199,758.497C385.194,758.497 384.978,759.215 384.978,764.029M395.575,764.029C395.575,772.507 393.384,776.351 386.199,776.351C379.015,776.351 376.823,772.507 376.823,764.029C376.823,755.551 379.194,751.743 386.199,751.743C393.42,751.743 395.575,755.551 395.575,764.029" style="fill:rgb(78,135,160);fill-rule:nonzero;"/>
        <path d="M404.996,752.096L411.857,752.096L411.857,775.77L403.703,775.77L403.703,760.825L398.745,762.801L396.59,756.982L404.996,752.096Z" style="fill:rgb(78,135,160);fill-rule:nonzero;"/>
        <path d="M423.532,758.944C423.532,760.058 424.215,760.74 424.215,760.74L425.184,760.74C425.184,760.74 425.867,760.022 425.867,758.944C425.867,757.902 425.58,757.327 424.646,757.327C423.712,757.327 423.532,757.938 423.532,758.944M426.119,768.284C426.119,766.991 425.184,766.165 425.184,766.165L424.215,766.165C424.215,766.165 423.245,766.955 423.245,768.284C423.245,769.398 423.712,769.865 424.682,769.865C425.651,769.865 426.119,769.506 426.119,768.284M433.734,757.759C433.734,760.776 433.195,762.141 431.004,763.434C433.483,764.656 434.094,765.841 434.094,769.182C434.094,774.535 429.711,775.936 424.682,775.936C419.652,775.936 415.27,774.535 415.27,769.11C415.27,765.841 416.168,764.728 418.395,763.399C416.311,762.141 415.701,760.812 415.701,757.723C415.701,752.873 419.58,751.328 424.682,751.328C429.783,751.328 433.734,752.55 433.734,757.759" style="fill:rgb(78,135,160);fill-rule:nonzero;"/>
        <path d="M140.827,680.848L140.827,763.405L174.107,730.124L174.107,647.568L140.827,680.848Z" style="fill:rgb(91,194,231);fill-rule:nonzero;"/>
        <path d="M174.107,730.124L140.827,763.405L140.826,763.405L223.383,763.405L256.663,730.124L174.107,730.124Z" style="fill:rgb(78,135,160);fill-rule:nonzero;"/>
        <path d="M290.485,647.568L255.642,682.411L232.109,705.944L279.174,705.944L337.551,647.568L290.485,647.568Z" style="fill:rgb(91,194,231);fill-rule:nonzero;"/>
        <path d="M290.485,764.32L232.109,705.944L279.174,705.944L337.551,764.32L290.485,764.32Z" style="fill:rgb(78,135,160);fill-rule:nonzero;"/>
        <path d="M396.077,659.618L396.077,659.772L395.924,659.618L395.924,706.684L396.077,706.531L396.077,706.684L454.453,765.06L454.453,717.995L396.077,659.618Z" style="fill:rgb(91,194,231);fill-rule:nonzero;"/>
        <path d="M337.701,717.995L396.077,659.619L396.077,706.684L337.701,765.061L337.701,717.995Z" style="fill:rgb(78,135,160);fill-rule:nonzero;"/>
    </g>
</svg>
