<svg width="141" height="77" viewBox="0 0 141 77" fill="none" xmlns="http://www.w3.org/2000/svg">
<path fill-rule="evenodd" clip-rule="evenodd" d="M0 0V39.1772H24.3941V36.7113H2.8183V0H0Z" transform="translate(2 1.74043)" fill="#0F7C11"/>
<mask id="mask0" mask-type="alpha" maskUnits="userSpaceOnUse" x="35" y="0" width="28" height="42">
<path fill-rule="evenodd" clip-rule="evenodd" d="M0 0H26.8685V40.8318H0V0Z" transform="translate(35.5422 0.913235)" fill="white"/>
</mask>
<g mask="url(#mask0)">
<path fill-rule="evenodd" clip-rule="evenodd" d="M5.39395 6.41443C7.19002 3.79548 9.89559 2.46783 13.4361 2.46783C15.2762 2.46783 16.8812 2.79113 18.2015 3.43009C19.5237 4.07096 20.63 4.9433 21.4898 6.028C22.3401 7.09548 22.9783 8.34087 23.3891 9.724C23.7559 10.9637 23.9737 12.255 24.0387 13.5635H26.8685C26.8341 11.7403 26.536 10.0052 25.9857 8.39826C25.4068 6.71287 24.5469 5.22835 23.4292 3.98296C22.3229 2.75096 20.9223 1.76957 19.2676 1.06748C17.6015 0.357739 15.6392 0 13.4361 0C9.16187 0 5.93468 1.32765 3.57113 4.05757C1.20375 6.79513 0 10.7494 0 15.8132V25.0207C0 30.2337 1.19993 34.2243 3.56348 36.8816C5.92513 39.5388 9.15614 40.832 13.4361 40.832C15.6392 40.832 17.6015 40.4723 19.2676 39.7664C20.9223 39.0624 22.3229 38.081 23.4292 36.849C24.5469 35.6037 25.4068 34.1172 25.9857 32.4337C26.536 30.8268 26.8341 29.0917 26.8685 27.2666H24.0483C24.0177 28.6134 23.8151 29.9143 23.4464 31.1405C23.0337 32.5103 22.3955 33.7403 21.5509 34.804C20.6854 35.8906 19.5676 36.7668 18.2263 37.4057C16.8888 38.0409 15.2781 38.3642 13.4361 38.3642C9.90896 38.3642 7.20721 37.115 5.41114 34.651C3.6915 32.2903 2.8183 28.931 2.8183 24.6668V16.1671C2.8183 12.188 3.68577 8.90713 5.39395 6.41443Z" transform="translate(35.5422 0.913235)" fill="#0F7C11"/>
</g>
<path fill-rule="evenodd" clip-rule="evenodd" d="M4.97741 2.4927C4.97741 3.86817 3.86346 4.98348 2.48775 4.98348C1.11395 4.98348 0 3.86817 0 2.4927C0 1.11722 1.11395 0 2.48775 0C3.86346 0 4.97741 1.11722 4.97741 2.4927Z" transform="translate(86.9294 2.46242)" fill="#0F7C11"/>
<path fill-rule="evenodd" clip-rule="evenodd" d="M4.97741 2.49078C4.97741 3.86626 3.86346 4.98348 2.48966 4.98348C1.11395 4.98348 0 3.86626 0 2.49078C0 1.1153 1.11395 0 2.48966 0C3.86346 0 4.97741 1.1153 4.97741 2.49078Z" transform="translate(71.2024 35.851)" fill="#0F7C11"/>
<path fill-rule="evenodd" clip-rule="evenodd" d="M4.97741 2.49078C4.97741 3.86626 3.86346 4.98348 2.48966 4.98348C1.11395 4.98348 0 3.86626 0 2.49078C0 1.1153 1.11395 0 2.48966 0C3.86346 0 4.97741 1.1153 4.97741 2.49078Z" transform="translate(103.002 35.851)" fill="#0F7C11"/>
<path fill-rule="evenodd" clip-rule="evenodd" d="M1.36425 0L1.36043 0.00191304L0 2.70313L11.9936 28.0395L14.1527 27.016L1.36425 0Z" transform="translate(92.417 10.8157)" fill="#0F7C11"/>
<path fill-rule="evenodd" clip-rule="evenodd" d="M2.675 27.1078L15.7729 1.07704L13.6406 0L0 27.1097L2.675 27.1078Z" transform="translate(74.7122 4.41678)" fill="#0F7C11"/>
<path fill-rule="evenodd" clip-rule="evenodd" d="M23.8935 0L0 0.0153043L0.00191071 2.40661L25.0246 2.3913L23.8935 0Z" transform="translate(73.6904 37.1321)" fill="#0F7C11"/>
<path d="M1.2 16.08H3.984V8.72H1.296V6.8H6V16.08H8.592V18H1.2V16.08ZM12.1889 16.08H14.8769V11.984H12.3809V10.064H16.8929V16.08H19.1969V18H12.1889V16.08ZM17.3889 7.712C17.3889 7.92533 17.3462 8.128 17.2609 8.32C17.1862 8.50133 17.0795 8.66133 16.9409 8.8C16.8022 8.928 16.6369 9.03467 16.4449 9.12C16.2635 9.19467 16.0715 9.232 15.8689 9.232C15.6555 9.232 15.4582 9.19467 15.2769 9.12C15.0955 9.03467 14.9355 8.928 14.7969 8.8C14.6582 8.66133 14.5462 8.50133 14.4609 8.32C14.3862 8.128 14.3489 7.92533 14.3489 7.712C14.3489 7.49867 14.3862 7.30133 14.4609 7.12C14.5462 6.928 14.6582 6.768 14.7969 6.64C14.9355 6.50133 15.0955 6.39467 15.2769 6.32C15.4582 6.23467 15.6555 6.192 15.8689 6.192C16.0715 6.192 16.2635 6.23467 16.4449 6.32C16.6369 6.39467 16.8022 6.50133 16.9409 6.64C17.0795 6.768 17.1862 6.928 17.2609 7.12C17.3462 7.30133 17.3889 7.49867 17.3889 7.712ZM24.8577 18H22.8418V10.064H24.8577V11.248H25.1458C25.3271 10.8 25.6204 10.4533 26.0258 10.208C26.4311 9.96267 26.9057 9.84 27.4497 9.84C27.8338 9.84 28.1911 9.904 28.5217 10.032C28.8631 10.1493 29.1617 10.336 29.4177 10.592C29.6738 10.848 29.8711 11.1733 30.0098 11.568C30.1591 11.9627 30.2338 12.432 30.2338 12.976V18H28.2178V13.488C28.2178 12.9227 28.0791 12.48 27.8018 12.16C27.5351 11.8293 27.1458 11.664 26.6337 11.664C26.0364 11.664 25.5884 11.8667 25.2898 12.272C25.0017 12.6667 24.8577 13.2 24.8577 13.872V18ZM39.0146 10.064H41.0306V18H39.0146V16.848H38.7266C38.3746 17.7653 37.6173 18.224 36.4546 18.224C36.06 18.224 35.692 18.16 35.3506 18.032C35.0093 17.904 34.7106 17.7067 34.4546 17.44C34.1986 17.1733 33.996 16.8427 33.8466 16.448C33.708 16.0427 33.6386 15.568 33.6386 15.024V10.064H35.6546V14.608C35.6546 15.1733 35.788 15.616 36.0546 15.936C36.3213 16.2453 36.7213 16.4 37.2546 16.4C37.8626 16.4 38.3053 16.208 38.5826 15.824C38.8706 15.4293 39.0146 14.896 39.0146 14.224V10.064ZM49.6995 10.064H51.9235L50.0035 13.792V14.08L52.0355 18H49.7155L48.2275 14.896H47.9395L46.4515 18H44.1315L46.1635 14.08V13.792L44.2275 10.064H46.4675L47.9395 12.976H48.2275L49.6995 10.064ZM60.4004 16.704C60.4004 16.9173 60.3577 17.12 60.2724 17.312C60.1977 17.4933 60.091 17.6533 59.9524 17.792C59.8137 17.92 59.6484 18.0213 59.4564 18.096C59.275 18.1813 59.083 18.224 58.8804 18.224C58.667 18.224 58.4697 18.1813 58.2884 18.096C58.107 18.0213 57.947 17.92 57.8084 17.792C57.6697 17.6533 57.5577 17.4933 57.4724 17.312C57.3977 17.12 57.3604 16.9173 57.3604 16.704C57.3604 16.4907 57.3977 16.2933 57.4724 16.112C57.5577 15.92 57.6697 15.76 57.8084 15.632C57.947 15.4933 58.107 15.3867 58.2884 15.312C58.4697 15.2267 58.667 15.184 58.8804 15.184C59.083 15.184 59.275 15.2267 59.4564 15.312C59.6484 15.3867 59.8137 15.4933 59.9524 15.632C60.091 15.76 60.1977 15.92 60.2724 16.112C60.3577 16.2933 60.4004 16.4907 60.4004 16.704ZM73.7732 15.088C73.5919 16.0267 73.1599 16.784 72.4773 17.36C71.8053 17.936 70.9039 18.224 69.7733 18.224C69.1866 18.224 68.6373 18.1333 68.1253 17.952C67.6239 17.7707 67.1866 17.5093 66.8133 17.168C66.4399 16.8267 66.1466 16.4053 65.9332 15.904C65.7199 15.4027 65.6133 14.832 65.6133 14.192V14C65.6133 13.36 65.7199 12.784 65.9332 12.272C66.1466 11.76 66.4399 11.3227 66.8133 10.96C67.1973 10.5973 67.6399 10.32 68.1412 10.128C68.6532 9.936 69.1972 9.84 69.7733 9.84C70.8826 9.84 71.7786 10.128 72.4612 10.704C73.1546 11.28 73.5919 12.0373 73.7732 12.976L71.7892 13.488C71.7253 13.0187 71.5226 12.6133 71.1813 12.272C70.8399 11.9307 70.3599 11.76 69.7413 11.76C69.4532 11.76 69.1812 11.8133 68.9253 11.92C68.6693 12.0267 68.4452 12.1813 68.2532 12.384C68.0612 12.576 67.9066 12.816 67.7892 13.104C67.6826 13.3813 67.6293 13.696 67.6293 14.048V14.144C67.6293 14.496 67.6826 14.8107 67.7892 15.088C67.9066 15.3547 68.0612 15.5787 68.2532 15.76C68.4452 15.9413 68.6693 16.08 68.9253 16.176C69.1812 16.2613 69.4532 16.304 69.7413 16.304C70.3599 16.304 70.8293 16.1493 71.1493 15.84C71.4799 15.5307 71.6932 15.1147 71.7892 14.592L73.7732 15.088ZM84.6021 14.128C84.6021 14.7893 84.4901 15.376 84.2661 15.888C84.0421 16.3893 83.7381 16.816 83.3541 17.168C82.9701 17.5093 82.5275 17.7707 82.0261 17.952C81.5355 18.1333 81.0181 18.224 80.4741 18.224C79.9301 18.224 79.4075 18.1333 78.9061 17.952C78.4155 17.7707 77.9781 17.5093 77.5941 17.168C77.2101 16.816 76.9061 16.3893 76.6821 15.888C76.4581 15.376 76.3461 14.7893 76.3461 14.128V13.936C76.3461 13.2853 76.4581 12.7093 76.6821 12.208C76.9061 11.696 77.2101 11.264 77.5941 10.912C77.9781 10.56 78.4155 10.2933 78.9061 10.112C79.4075 9.93067 79.9301 9.84 80.4741 9.84C81.0181 9.84 81.5355 9.93067 82.0261 10.112C82.5275 10.2933 82.9701 10.56 83.3541 10.912C83.7381 11.264 84.0421 11.696 84.2661 12.208C84.4901 12.7093 84.6021 13.2853 84.6021 13.936V14.128ZM80.4741 16.304C80.7621 16.304 81.0341 16.256 81.2901 16.16C81.5461 16.064 81.7701 15.9253 81.9621 15.744C82.1541 15.5627 82.3035 15.344 82.4101 15.088C82.5275 14.8213 82.5861 14.5227 82.5861 14.192V13.872C82.5861 13.5413 82.5275 13.248 82.4101 12.992C82.3035 12.7253 82.1541 12.5013 81.9621 12.32C81.7701 12.1387 81.5461 12 81.2901 11.904C81.0341 11.808 80.7621 11.76 80.4741 11.76C80.1861 11.76 79.9141 11.808 79.6581 11.904C79.4021 12 79.1781 12.1387 78.9861 12.32C78.7941 12.5013 78.6395 12.7253 78.5221 12.992C78.4155 13.248 78.3621 13.5413 78.3621 13.872V14.192C78.3621 14.5227 78.4155 14.8213 78.5221 15.088C78.6395 15.344 78.7941 15.5627 78.9861 15.744C79.1781 15.9253 79.4021 16.064 79.6581 16.16C79.9141 16.256 80.1861 16.304 80.4741 16.304ZM89.639 18H87.623V10.064H89.639V11.248H89.927C90.1083 10.8 90.4017 10.4533 90.807 10.208C91.2123 9.96267 91.687 9.84 92.231 9.84C92.615 9.84 92.9723 9.904 93.303 10.032C93.6443 10.1493 93.943 10.336 94.199 10.592C94.455 10.848 94.6523 11.1733 94.791 11.568C94.9403 11.9627 95.015 12.432 95.015 12.976V18H92.999V13.488C92.999 12.9227 92.8603 12.48 92.583 12.16C92.3163 11.8293 91.927 11.664 91.415 11.664C90.8177 11.664 90.3697 11.8667 90.071 12.272C89.783 12.6667 89.639 13.2 89.639 13.872V18ZM98.3559 10.064H100.612V8.432C100.612 7.97333 100.767 7.58933 101.076 7.28C101.385 6.96 101.769 6.8 102.228 6.8H105.46V8.72H103.06C102.772 8.72 102.628 8.88 102.628 9.2V10.064H105.748V11.984H102.628V18H100.612V11.984H98.3559V10.064ZM114.385 16.704C114.385 16.9173 114.342 17.12 114.257 17.312C114.182 17.4933 114.075 17.6533 113.937 17.792C113.798 17.92 113.633 18.0213 113.441 18.096C113.259 18.1813 113.067 18.224 112.865 18.224C112.651 18.224 112.454 18.1813 112.273 18.096C112.091 18.0213 111.931 17.92 111.793 17.792C111.654 17.6533 111.542 17.4933 111.457 17.312C111.382 17.12 111.345 16.9173 111.345 16.704C111.345 16.4907 111.382 16.2933 111.457 16.112C111.542 15.92 111.654 15.76 111.793 15.632C111.931 15.4933 112.091 15.3867 112.273 15.312C112.454 15.2267 112.651 15.184 112.865 15.184C113.067 15.184 113.259 15.2267 113.441 15.312C113.633 15.3867 113.798 15.4933 113.937 15.632C114.075 15.76 114.182 15.92 114.257 16.112C114.342 16.2933 114.385 16.4907 114.385 16.704ZM125.15 16.848C124.936 17.3493 124.638 17.7067 124.254 17.92C123.87 18.1227 123.422 18.224 122.91 18.224C122.43 18.224 121.976 18.1333 121.55 17.952C121.134 17.7707 120.766 17.504 120.446 17.152C120.126 16.8 119.87 16.3733 119.678 15.872C119.496 15.3707 119.406 14.8 119.406 14.16V13.904C119.406 13.2747 119.496 12.7093 119.678 12.208C119.859 11.7067 120.104 11.28 120.414 10.928C120.723 10.576 121.08 10.3093 121.486 10.128C121.902 9.936 122.344 9.84 122.814 9.84C123.379 9.84 123.832 9.936 124.174 10.128C124.526 10.32 124.803 10.6187 125.006 11.024H125.294V10.064H127.31V15.6C127.31 15.92 127.454 16.08 127.742 16.08H128.046V18H126.67C126.307 18 126.008 17.8933 125.774 17.68C125.55 17.4667 125.438 17.1893 125.438 16.848H125.15ZM123.358 16.304C123.944 16.304 124.414 16.112 124.766 15.728C125.118 15.3333 125.294 14.8 125.294 14.128V13.936C125.294 13.264 125.118 12.736 124.766 12.352C124.414 11.9573 123.944 11.76 123.358 11.76C122.771 11.76 122.302 11.9573 121.95 12.352C121.598 12.736 121.422 13.264 121.422 13.936V14.128C121.422 14.8 121.598 15.3333 121.95 15.728C122.302 16.112 122.771 16.304 123.358 16.304ZM136.187 10.064H138.203V18H136.187V16.848H135.898C135.547 17.7653 134.789 18.224 133.627 18.224C133.232 18.224 132.864 18.16 132.523 18.032C132.181 17.904 131.882 17.7067 131.626 17.44C131.37 17.1733 131.168 16.8427 131.018 16.448C130.88 16.0427 130.811 15.568 130.811 15.024V10.064H132.826V14.608C132.826 15.1733 132.96 15.616 133.227 15.936C133.493 16.2453 133.893 16.4 134.426 16.4C135.034 16.4 135.477 16.208 135.754 15.824C136.043 15.4293 136.187 14.896 136.187 14.224V10.064Z" transform="translate(0 53)" fill="#0F7C11"/>
</svg>
