[
    {
        "pk": 1,
        "model": "symposion_proposals.proposalsection",
        "fields": {
            "closed": false,
            "end": "2018-07-30T12:00:00Z",
            "published": false,
            "section": 1,
            "start": "2018-05-30T00:00:00Z"
        }
    },
    {
        "pk": 2,
        "model": "symposion_proposals.proposalsection",
        "fields": {
            "closed": false,
            "end": "2018-07-30T12:00:00Z",
            "published": false,
            "section": 2,
            "start": "2018-05-30T00:00:00Z"
        }
    },
    {
        "pk": 1,
        "model": "symposion_proposals.proposalkind",
        "fields": {
            "section": 1,
            "name": "Talk",
            "slug": "talk"
        }
    },
    {
        "pk": 2,
        "model": "symposion_proposals.proposalkind",
        "fields": {
            "section": 1,
            "name": "Tutorial",
            "slug": "tutorial"
        }
    },
    {
        "pk": 3,
        "model": "symposion_proposals.proposalkind",
        "fields": {
            "section": 2,
            "name": "Miniconf",
            "slug": "miniconf"
        }
    }
]
